<?xml version="1.0" encoding="UTF-8" standalone="no"?>
<svg width="157px" height="229px" viewBox="0 0 157 229" version="1.1" xmlns="http://www.w3.org/2000/svg" xmlns:xlink="http://www.w3.org/1999/xlink">
    <!-- Generator: Sketch 3.7.1 (28215) - http://www.bohemiancoding.com/sketch -->
    <title>Path</title>
    <desc>Created with Sketch.</desc>
    <defs></defs>
    <g id="web" stroke="none" stroke-width="1" fill="none" fill-rule="evenodd">
        <g id="introduction-wide-copy" transform="translate(-419.000000, -397.000000)" fill="#FFFFFF">
            <g id="Group" transform="translate(419.000000, 349.000000)">
                <path d="M0,276.404353 L0,51.3750581 L24.9564155,51.3750581 C27.6008172,51.3750581 29.859543,51.9813029 31.7326608,53.1938106 C33.6057786,54.4063184 34.8177779,56.280166 35.3686949,58.8154095 L38.6741804,74.522818 C45.5055512,66.6966315 53.3560008,60.3586177 62.2257646,55.5085866 C71.0955284,50.6585555 81.4801581,48.2335764 93.3799654,48.2335764 C102.635371,48.2335764 111.09182,50.1625371 118.749567,54.0205164 C126.407313,57.8784956 133.018218,63.4724817 138.58248,70.8026423 C144.146741,78.132803 148.44383,87.1713617 151.473873,97.9185897 C154.503917,108.665818 156.018916,120.98361 156.018916,134.872335 C156.018916,147.548553 154.311099,159.287656 150.895413,170.089998 C147.479728,180.89234 142.604185,190.261578 136.26864,198.197993 C129.933094,206.134407 122.275463,212.334638 113.295516,216.798871 C104.315568,221.263104 94.2614839,223.495188 83.1329604,223.495188 C73.5470045,223.495188 65.4211006,222.034689 58.7550048,219.113647 C52.088909,216.192606 46.1115492,212.141788 40.822746,206.961073 L40.822746,276.404353 L0,276.404353 Z M79.3316521,80.4750992 C70.8475302,80.4750992 63.6030802,82.266277 57.5980849,85.8486863 C51.5930895,89.4310956 46.0013658,94.4739501 40.822746,100.977401 L40.822746,177.034326 C45.4504488,182.766181 50.4912638,186.761886 55.9453421,189.021559 C61.3994205,191.281233 67.2665986,192.411053 73.5470524,192.411053 C79.7173229,192.411053 85.3090466,191.253676 90.3223914,188.938889 C95.3357361,186.624101 99.5777334,183.096859 103.048511,178.357056 C106.519288,173.617252 109.191195,167.637474 111.064313,160.417542 C112.937431,153.197609 113.873976,144.682625 113.873976,134.872335 C113.873976,124.951817 113.075158,116.54706 111.477499,109.657811 C109.879839,102.768562 107.593568,97.1745761 104.618616,92.8756849 C101.643664,88.5767937 98.0352121,85.4353434 93.7931511,83.4512397 C89.5510902,81.4671361 84.7306387,80.4750992 79.3316521,80.4750992 Z" id="Path"></path>
            </g>
        </g>
    </g>
</svg>