<?xml version="1.0" encoding="UTF-8" standalone="no"?>
<svg width="132px" height="118px" viewBox="0 0 132 118" version="1.1" xmlns="http://www.w3.org/2000/svg" xmlns:xlink="http://www.w3.org/1999/xlink" xmlns:sketch="http://www.bohemiancoding.com/sketch/ns">
    <!-- Generator: Sketch 3.4.2 (15857) - http://www.bohemiancoding.com/sketch -->
    <title>Triangle 1 + Oval 256</title>
    <desc>Created with Sketch.</desc>
    <defs></defs>
    <g id="web" stroke="none" stroke-width="1" fill="none" fill-rule="evenodd" sketch:type="MSPage">
        <g id="introduction-wide-copy" sketch:type="MSArtboardGroup" transform="translate(-365.000000, -824.000000)" stroke="#FFFFFF" stroke-width="3" fill="#0082FF">
            <g id="Triangle-1-+-Oval-256" sketch:type="MSLayerGroup" transform="translate(440.251657, 868.890846) rotate(-38.000000) translate(-440.251657, -868.890846) translate(370.251657, 818.390846)">
                <path d="M23.7027719,100.674644 L23.7027719,-2.27373675e-13 L139.810518,50.337322 L23.7027719,100.674644 Z" id="Triangle-1" stroke-linecap="round" stroke-linejoin="round" sketch:type="MSShapeGroup"></path>
                <ellipse id="Oval-256" sketch:type="MSShapeGroup" cx="22.0680979" cy="50.2662231" rx="22.0680979" ry="50.2662231"></ellipse>
            </g>
        </g>
    </g>
</svg>